View                                              model                                                                                     controller                                   project versing

html,css.js.an js                            database.api,(java,php,python,ruby,c,etc)                                 javascirt,php,java                      .git








database
api
ui
validations
api call



